Assignment 1: Census Data Quality for Policy Decisions – Matthew Levy - MUSA 5080 Portfolio
…
- Year: 2022 - Survey: acs5 - Output format: wide

Hint: Remember to give your variables descriptive names using the variables = c(name = "code") syntax.

# Write your get_acs() code here

dataPA <- get_acs(geography = "county", 
                  variables = c(popTotal = "B01003_001",
                                medIncome = "B19013_001"),
                  year = 2022, state = "PA",
                  survey = "acs5", output = "wide")
dataPA

# A tibble: 67 × 6
   GEOID NAME                          popTotalE popTotalM medIncomeE medIncomeM
   <chr> <chr>                             <dbl>     <dbl>      <dbl>      <dbl>
 1 42001 Adams County, Pennsylvania       104604        NA      78975       3334
 2 42003 Allegheny County, Pennsylvan…   1245310        NA      72537        869
 3 42005 Armstrong County, Pennsylvan…     65538        NA      61011       2202
 4 42007 Beaver County, Pennsylvania      167629        NA      67194       1531
 5 42009 Bedford County, Pennsylvania      47613        NA      58337       2606
 6 42011 Berks County, Pennsylvania       428483        NA      74617       1191
 7 42013 Blair County, Pennsylvania       122640        NA      59386       2058
 8 42015 Bradford County, Pennsylvania     60159        NA      60650       2167
 9 42017 Bucks County, Pennsylvania       645163        NA     107826       1516
10 42019 Butler County, Pennsylvania      194562        NA      82932       2164
# ℹ 57 more rows
…
# A tibble: 2 × 3
  reliability         counties avgIncome
  <chr>                  <int>     <dbl>
1 High Confidence           57     68090
2 Moderate Confidence       10     60916

#Flag for unreliability
dataPA <- dataPA %>% mutate(unreliableIncome = case_when(
  moePercentage < 10 ~ FALSE,
  moePercentage >= 10 ~ TRUE))
dataPA

# A tibble: 67 × 10
   GEOID NAME               popTotalE popTotalM medIncomeE medIncomeM countyName
   <chr> <chr>                  <dbl>     <dbl>      <dbl>      <dbl> <chr>     
 1 42001 Adams County, Pen…    104604        NA      78975       3334 Adams     
 2 42003 Allegheny County,…   1245310        NA      72537        869 Allegheny 
 3 42005 Armstrong County,…     65538        NA      61011       2202 Armstrong 
 4 42007 Beaver County, Pe…    167629        NA      67194       1531 Beaver    
 5 42009 Bedford County, P…     47613        NA      58337       2606 Bedford   
 6 42011 Berks County, Pen…    428483        NA      74617       1191 Berks     
 7 42013 Blair County, Pen…    122640        NA      59386       2058 Blair     
 8 42015 Bradford County, …     60159        NA      60650       2167 Bradford  
 9 42017 Bucks County, Pen…    645163        NA     107826       1516 Bucks     
10 42019 Butler County, Pe…    194562        NA      82932       2164 Butler    
# ℹ 57 more rows
# ℹ 3 more variables: moePercentage <dbl>, reliability <chr>,
#   unreliableIncome <lgl>
…
Key Recommendations:

Your Task: Use your analysis results to provide specific guidance to the department.

Counties suitable for immediate algorithmic implementation: [List counties with high confidence data and explain why they’re appropriate]

The counties of Philadelphia, Allegheny, Bucks, Montgomery, and Berks are the 5 of the 57 “High Confidence” counties with the lowest margin of error percentage. Their relatively large populations compared to the rest of the counties most likely means that the ACS samples more residents of these counties than they do people of other counties, which would lower the margin of error.

#Full List of high confidence counties
q1 <- sumTable %>% filter(reliability == "High Confidence") %>%
  arrange(moePercentage)
print(q1)

# A tibble: 57 × 5
   countyName   medIncomeE moePercentage reliability     algRec                 
   <chr>             <dbl>         <dbl> <chr>           <chr>                  
 1 Allegheny         72537          1.20 High Confidence Safe for algorithmic d…
 2 Montgomery       107441          1.27 High Confidence Safe for algorithmic d…
 3 Philadelphia      57537          1.38 High Confidence Safe for algorithmic d…
 4 Bucks            107826          1.41 High Confidence Safe for algorithmic d…
 5 Delaware          86390          1.53 High Confidence Safe for algorithmic d…
 6 Berks             74617          1.60 High Confidence Safe for algorithmic d…
 7 Chester          118574          1.70 High Confidence Safe for algorithmic d…
 8 York              79183          1.79 High Confidence Safe for algorithmic d…
 9 Lancaster         81458          1.79 High Confidence Safe for algorithmic d…
10 Northampton       82201          1.93 High Confidence Safe for algorithmic d…
# ℹ 47 more rows
…
